EESchema Schematic File Version 4
LIBS:ClockKicad-cache
EELAYER 30 0
EELAYER END
$Descr A4 11693 8268
encoding utf-8
Sheet 1 1
Title ""
Date ""
Rev ""
Comp ""
Comment1 ""
Comment2 ""
Comment3 ""
Comment4 ""
$EndDescr
$Comp
L power:+5V #PWR06
U 1 1 5DB6EC4C
P 7700 1900
F 0 "#PWR06" H 7700 1750 50  0001 C CNN
F 1 "+5V" H 7715 2073 50  0000 C CNN
F 2 "" H 7700 1900 50  0001 C CNN
F 3 "" H 7700 1900 50  0001 C CNN
	1    7700 1900
	1    0    0    -1  
$EndComp
$Comp
L Device:Q_PNP_CBE Q1
U 1 1 5DB6D7C9
P 7600 2650
F 0 "Q1" H 7790 2604 50  0000 L CNN
F 1 "Q_PNP_CBE" H 7790 2695 50  0000 L CNN
F 2 "Package_TO_SOT_THT:TO-92_Inline" H 7800 2750 50  0001 C CNN
F 3 "~" H 7600 2650 50  0001 C CNN
	1    7600 2650
	1    0    0    1   
$EndComp
$Comp
L Device:R R3
U 1 1 5DB71AAC
P 8650 2900
F 0 "R3" V 8443 2900 50  0000 C CNN
F 1 "1k" V 8534 2900 50  0000 C CNN
F 2 "Resistor_THT:R_Axial_DIN0204_L3.6mm_D1.6mm_P7.62mm_Horizontal" V 8580 2900 50  0001 C CNN
F 3 "~" H 8650 2900 50  0001 C CNN
	1    8650 2900
	0    1    1    0   
$EndComp
$Comp
L Device:R R1
U 1 1 5DB6E62C
P 7250 2650
F 0 "R1" V 7043 2650 50  0000 C CNN
F 1 "1k" V 7134 2650 50  0000 C CNN
F 2 "Resistor_THT:R_Axial_DIN0204_L3.6mm_D1.6mm_P7.62mm_Horizontal" V 7180 2650 50  0001 C CNN
F 3 "~" H 7250 2650 50  0001 C CNN
	1    7250 2650
	0    1    1    0   
$EndComp
Wire Wire Line
	7700 3400 7700 3250
$Comp
L power:GND #PWR07
U 1 1 5DB6C6B3
P 7700 3400
F 0 "#PWR07" H 7700 3150 50  0001 C CNN
F 1 "GND" H 7705 3227 50  0000 C CNN
F 2 "" H 7700 3400 50  0001 C CNN
F 3 "" H 7700 3400 50  0001 C CNN
	1    7700 3400
	1    0    0    -1  
$EndComp
$Comp
L Device:R R2
U 1 1 5DB6B6C4
P 7700 3100
F 0 "R2" H 7770 3146 50  0000 L CNN
F 1 "10k" H 7770 3055 50  0000 L CNN
F 2 "Resistor_THT:R_Axial_DIN0204_L3.6mm_D1.6mm_P7.62mm_Horizontal" V 7630 3100 50  0001 C CNN
F 3 "~" H 7700 3100 50  0001 C CNN
	1    7700 3100
	1    0    0    -1  
$EndComp
$Comp
L MCU_Microchip_ATmega:ATmega328-PU U1
U 1 1 5DE4748F
P 4050 3350
F 0 "U1" H 3406 3396 50  0000 R CNN
F 1 "ATmega328-PU" H 3406 3305 50  0000 R CNN
F 2 "Package_DIP:DIP-28_W7.62mm" H 4050 3350 50  0001 C CIN
F 3 "http://ww1.microchip.com/downloads/en/DeviceDoc/ATmega328_P%20AVR%20MCU%20with%20picoPower%20Technology%20Data%20Sheet%2040001984A.pdf" H 4050 3350 50  0001 C CNN
	1    4050 3350
	1    0    0    -1  
$EndComp
$Comp
L power:GND #PWR02
U 1 1 5DE48E1C
P 4050 5050
F 0 "#PWR02" H 4050 4800 50  0001 C CNN
F 1 "GND" H 4055 4877 50  0000 C CNN
F 2 "" H 4050 5050 50  0001 C CNN
F 3 "" H 4050 5050 50  0001 C CNN
	1    4050 5050
	1    0    0    -1  
$EndComp
Wire Wire Line
	4050 5050 4050 4850
$Comp
L power:+5V #PWR01
U 1 1 5DE4DE85
P 4050 1650
F 0 "#PWR01" H 4050 1500 50  0001 C CNN
F 1 "+5V" H 4065 1823 50  0000 C CNN
F 2 "" H 4050 1650 50  0001 C CNN
F 3 "" H 4050 1650 50  0001 C CNN
	1    4050 1650
	1    0    0    -1  
$EndComp
Wire Wire Line
	4050 1650 4050 1750
Wire Wire Line
	4150 1850 4150 1750
Wire Wire Line
	4150 1750 4050 1750
Connection ~ 4050 1750
Wire Wire Line
	4050 1750 4050 1850
$Comp
L Device:Crystal Y1
U 1 1 5DE67B5F
P 5150 2850
F 0 "Y1" V 5104 2981 50  0000 L CNN
F 1 "16MHz" V 5195 2981 50  0000 L CNN
F 2 "Crystal:Crystal_HC18-U_Vertical" H 5150 2850 50  0001 C CNN
F 3 "~" H 5150 2850 50  0001 C CNN
	1    5150 2850
	0    1    1    0   
$EndComp
Wire Wire Line
	5150 2700 4650 2700
Wire Wire Line
	4650 2700 4650 2750
Wire Wire Line
	5150 3000 4650 3000
Wire Wire Line
	4650 3000 4650 2850
$Comp
L power:GND #PWR03
U 1 1 5DE690D0
P 6100 3050
F 0 "#PWR03" H 6100 2800 50  0001 C CNN
F 1 "GND" H 6105 2877 50  0000 C CNN
F 2 "" H 6100 3050 50  0001 C CNN
F 3 "" H 6100 3050 50  0001 C CNN
	1    6100 3050
	1    0    0    -1  
$EndComp
$Comp
L Device:C C2
U 1 1 5DE69B9B
P 5700 3000
F 0 "C2" V 5448 3000 50  0000 C CNN
F 1 "22pF" V 5539 3000 50  0000 C CNN
F 2 "Capacitor_THT:C_Disc_D3.0mm_W2.0mm_P2.50mm" H 5738 2850 50  0001 C CNN
F 3 "~" H 5700 3000 50  0001 C CNN
	1    5700 3000
	0    1    1    0   
$EndComp
$Comp
L Device:C C1
U 1 1 5DE715D0
P 5700 2750
F 0 "C1" V 5448 2750 50  0000 C CNN
F 1 "22pF" V 5539 2750 50  0000 C CNN
F 2 "Capacitor_THT:C_Disc_D3.0mm_W2.0mm_P2.50mm" H 5738 2600 50  0001 C CNN
F 3 "~" H 5700 2750 50  0001 C CNN
	1    5700 2750
	0    1    1    0   
$EndComp
Wire Wire Line
	6100 3050 6100 3000
Wire Wire Line
	6100 2750 5850 2750
Wire Wire Line
	5850 3000 6100 3000
Connection ~ 6100 3000
Wire Wire Line
	6100 3000 6100 2750
Wire Wire Line
	5550 2750 5550 2700
Wire Wire Line
	5550 2700 5150 2700
Connection ~ 5150 2700
Wire Wire Line
	5550 3000 5150 3000
Connection ~ 5150 3000
$Comp
L Connector:Conn_01x12_Male J1
U 1 1 5DE90D3D
P 7150 4950
F 0 "J1" H 7122 4832 50  0000 R CNN
F 1 "16x2 display" H 7122 4923 50  0000 R CNN
F 2 "Connector_PinHeader_2.54mm:PinHeader_1x12_P2.54mm_Vertical" H 7150 4950 50  0001 C CNN
F 3 "~" H 7150 4950 50  0001 C CNN
	1    7150 4950
	-1   0    0    1   
$EndComp
$Comp
L power:GND #PWR05
U 1 1 5DE95445
P 6650 5700
F 0 "#PWR05" H 6650 5450 50  0001 C CNN
F 1 "GND" H 6655 5527 50  0000 C CNN
F 2 "" H 6650 5700 50  0001 C CNN
F 3 "" H 6650 5700 50  0001 C CNN
	1    6650 5700
	1    0    0    -1  
$EndComp
Wire Wire Line
	6650 5700 6650 5450
Wire Wire Line
	6650 5450 6750 5450
$Comp
L power:+5V #PWR04
U 1 1 5DE9627F
P 6650 4050
F 0 "#PWR04" H 6650 3900 50  0001 C CNN
F 1 "+5V" H 6665 4223 50  0000 C CNN
F 2 "" H 6650 4050 50  0001 C CNN
F 3 "" H 6650 4050 50  0001 C CNN
	1    6650 4050
	1    0    0    -1  
$EndComp
Wire Wire Line
	6650 4050 6650 4950
Wire Wire Line
	6650 5350 6950 5350
$Comp
L Device:R_POT RV1
U 1 1 5DE9D8EA
P 6150 5200
F 0 "RV1" H 6081 5246 50  0000 R CNN
F 1 "R_POT" H 6081 5155 50  0000 R CNN
F 2 "Potentiometer_THT:Potentiometer_ACP_CA9-H5_Horizontal" H 6150 5200 50  0001 C CNN
F 3 "~" H 6150 5200 50  0001 C CNN
	1    6150 5200
	1    0    0    -1  
$EndComp
Wire Wire Line
	6150 5350 6150 5450
Wire Wire Line
	6150 5450 6650 5450
Connection ~ 6650 5450
Wire Wire Line
	6150 5050 6150 4950
Wire Wire Line
	6150 4950 6650 4950
Connection ~ 6650 4950
Wire Wire Line
	6650 4950 6650 5350
Wire Wire Line
	6300 5200 6300 5250
Wire Wire Line
	6300 5250 6950 5250
Wire Wire Line
	6950 5050 6750 5050
Wire Wire Line
	6750 5050 6750 5450
Connection ~ 6750 5450
Wire Wire Line
	6750 5450 6950 5450
Wire Wire Line
	6950 4950 6800 4950
Wire Wire Line
	6800 4950 6800 2150
Wire Wire Line
	6800 2150 4650 2150
Wire Wire Line
	6950 4450 6900 4450
Wire Wire Line
	6900 4450 6900 4150
Wire Wire Line
	6900 4150 8800 4150
Wire Wire Line
	8800 4150 8800 2900
Wire Wire Line
	6950 4350 6750 4350
Wire Wire Line
	6750 4350 6750 5050
Connection ~ 6750 5050
Wire Wire Line
	6950 4850 6700 4850
Wire Wire Line
	6700 4850 6700 2250
Wire Wire Line
	6700 2250 4650 2250
Wire Wire Line
	6950 4750 6550 4750
Wire Wire Line
	6550 4750 6550 2350
Wire Wire Line
	6550 2350 4650 2350
Wire Wire Line
	6950 4650 6450 4650
Wire Wire Line
	6450 4650 6450 2450
Wire Wire Line
	6450 2450 4650 2450
Wire Wire Line
	6300 4550 6300 2550
Wire Wire Line
	6300 2550 4650 2550
Wire Wire Line
	6300 4550 6950 4550
Wire Wire Line
	5000 5150 5000 4550
Wire Wire Line
	5000 4550 4650 4550
Wire Wire Line
	5000 5150 6950 5150
Connection ~ 6950 5150
Wire Wire Line
	6950 5150 7000 5150
$Comp
L Connector:Conn_01x05_Male J2
U 1 1 5DEBA1A2
P 3650 6200
F 0 "J2" H 3758 6581 50  0000 C CNN
F 1 "Rotary encoder" H 3758 6490 50  0000 C CNN
F 2 "Connector_PinHeader_2.54mm:PinHeader_1x05_P2.54mm_Vertical" H 3650 6200 50  0001 C CNN
F 3 "~" H 3650 6200 50  0001 C CNN
	1    3650 6200
	1    0    0    -1  
$EndComp
$Comp
L power:+5V #PWR0101
U 1 1 5DEBAB5B
P 4150 5750
F 0 "#PWR0101" H 4150 5600 50  0001 C CNN
F 1 "+5V" H 4165 5923 50  0000 C CNN
F 2 "" H 4150 5750 50  0001 C CNN
F 3 "" H 4150 5750 50  0001 C CNN
	1    4150 5750
	1    0    0    -1  
$EndComp
$Comp
L power:GND #PWR0102
U 1 1 5DEBB9B1
P 4000 6550
F 0 "#PWR0102" H 4000 6300 50  0001 C CNN
F 1 "GND" H 4005 6377 50  0000 C CNN
F 2 "" H 4000 6550 50  0001 C CNN
F 3 "" H 4000 6550 50  0001 C CNN
	1    4000 6550
	1    0    0    -1  
$EndComp
Wire Wire Line
	4000 6550 4000 6500
Wire Wire Line
	4000 6000 3850 6000
Wire Wire Line
	3850 6100 4150 6100
Wire Wire Line
	4150 6100 4150 5750
$Comp
L Device:R R4
U 1 1 5DEC3F18
P 4300 6200
F 0 "R4" V 4093 6200 50  0000 C CNN
F 1 "10k" V 4184 6200 50  0000 C CNN
F 2 "Resistor_THT:R_Axial_DIN0204_L3.6mm_D1.6mm_P7.62mm_Horizontal" V 4230 6200 50  0001 C CNN
F 3 "~" H 4300 6200 50  0001 C CNN
	1    4300 6200
	0    1    1    0   
$EndComp
$Comp
L Device:R R5
U 1 1 5DEC6ACF
P 4300 6300
F 0 "R5" V 4093 6300 50  0000 C CNN
F 1 "10k" V 4184 6300 50  0000 C CNN
F 2 "Resistor_THT:R_Axial_DIN0204_L3.6mm_D1.6mm_P7.62mm_Horizontal" V 4230 6300 50  0001 C CNN
F 3 "~" H 4300 6300 50  0001 C CNN
	1    4300 6300
	0    1    1    0   
$EndComp
$Comp
L Device:R R6
U 1 1 5DEC71B8
P 4300 6400
F 0 "R6" V 4093 6400 50  0000 C CNN
F 1 "10k" V 4184 6400 50  0000 C CNN
F 2 "Resistor_THT:R_Axial_DIN0204_L3.6mm_D1.6mm_P7.62mm_Horizontal" V 4230 6400 50  0001 C CNN
F 3 "~" H 4300 6400 50  0001 C CNN
	1    4300 6400
	0    1    1    0   
$EndComp
Wire Wire Line
	4150 6200 3850 6200
Wire Wire Line
	3850 6300 4150 6300
Wire Wire Line
	4150 6400 3850 6400
$Comp
L Device:CP C3
U 1 1 5DECF51F
P 4850 6200
F 0 "C3" V 4595 6200 50  0000 C CNN
F 1 "0.22uF" V 4686 6200 50  0000 C CNN
F 2 "Capacitor_THT:CP_Radial_D4.0mm_P2.00mm" H 4888 6050 50  0001 C CNN
F 3 "~" H 4850 6200 50  0001 C CNN
	1    4850 6200
	0    -1   1    0   
$EndComp
$Comp
L Device:CP C4
U 1 1 5DED0346
P 5100 6300
F 0 "C4" V 4845 6300 50  0000 C CNN
F 1 "0.22uF" V 4936 6300 50  0000 C CNN
F 2 "Capacitor_THT:CP_Radial_D4.0mm_P2.00mm" H 5138 6150 50  0001 C CNN
F 3 "~" H 5100 6300 50  0001 C CNN
	1    5100 6300
	0    -1   1    0   
$EndComp
$Comp
L Device:CP C5
U 1 1 5DED078A
P 5350 6400
F 0 "C5" V 5095 6400 50  0000 C CNN
F 1 "0.22uF" V 5186 6400 50  0000 C CNN
F 2 "Capacitor_THT:CP_Radial_D4.0mm_P2.00mm" H 5388 6250 50  0001 C CNN
F 3 "~" H 5350 6400 50  0001 C CNN
	1    5350 6400
	0    -1   1    0   
$EndComp
Wire Wire Line
	4450 6200 4500 6200
Wire Wire Line
	4450 6300 4550 6300
Wire Wire Line
	4450 6400 4600 6400
Wire Wire Line
	5000 6200 5000 6500
Wire Wire Line
	5000 6500 4000 6500
Connection ~ 4000 6500
Wire Wire Line
	4000 6500 4000 6000
Wire Wire Line
	5250 6300 5250 6500
Wire Wire Line
	5250 6500 5000 6500
Connection ~ 5000 6500
Wire Wire Line
	5500 6400 5500 6500
Wire Wire Line
	5500 6500 5250 6500
Connection ~ 5250 6500
Wire Wire Line
	4650 4150 4700 4150
Wire Wire Line
	4700 4150 4700 5500
Wire Wire Line
	4700 5500 4500 5500
Wire Wire Line
	4500 5500 4500 6200
Connection ~ 4500 6200
Wire Wire Line
	4500 6200 4700 6200
Wire Wire Line
	4550 6300 4550 5550
Wire Wire Line
	4550 5550 4750 5550
Wire Wire Line
	4750 5550 4750 4050
Wire Wire Line
	4750 4050 4650 4050
Connection ~ 4550 6300
Wire Wire Line
	4550 6300 4950 6300
Wire Wire Line
	4600 6400 4600 5650
Wire Wire Line
	4600 5650 4800 5650
Wire Wire Line
	4800 5650 4800 4250
Wire Wire Line
	4800 4250 4650 4250
Connection ~ 4600 6400
Wire Wire Line
	4600 6400 5200 6400
Wire Wire Line
	4650 4450 6100 4450
Wire Wire Line
	6100 4450 6100 3350
Wire Wire Line
	6100 3350 7100 3350
Wire Wire Line
	7100 3350 7100 2650
$Comp
L power:GND #PWR0103
U 1 1 5DF148F4
P 1900 5950
F 0 "#PWR0103" H 1900 5700 50  0001 C CNN
F 1 "GND" H 1905 5777 50  0000 C CNN
F 2 "" H 1900 5950 50  0001 C CNN
F 3 "" H 1900 5950 50  0001 C CNN
	1    1900 5950
	1    0    0    -1  
$EndComp
Wire Wire Line
	1900 5950 1900 5750
$Comp
L power:+5V #PWR0104
U 1 1 5DF226CD
P 2200 4900
F 0 "#PWR0104" H 2200 4750 50  0001 C CNN
F 1 "+5V" H 2215 5073 50  0000 C CNN
F 2 "" H 2200 4900 50  0001 C CNN
F 3 "" H 2200 4900 50  0001 C CNN
	1    2200 4900
	1    0    0    -1  
$EndComp
Wire Wire Line
	2200 4900 2200 5150
Wire Wire Line
	7700 1900 7700 2300
Wire Wire Line
	7700 2850 7700 2900
Wire Wire Line
	7700 2900 8250 2900
Connection ~ 7700 2900
Wire Wire Line
	7700 2900 7700 2950
$Comp
L Connector:Conn_01x02_Male J3
U 1 1 5DF53B33
P 8450 2550
F 0 "J3" H 8422 2432 50  0000 R CNN
F 1 "Press" H 8422 2523 50  0000 R CNN
F 2 "Connector_PinHeader_2.54mm:PinHeader_1x02_P2.54mm_Vertical" H 8450 2550 50  0001 C CNN
F 3 "~" H 8450 2550 50  0001 C CNN
	1    8450 2550
	-1   0    0    1   
$EndComp
Wire Wire Line
	8250 2550 8250 2900
Connection ~ 8250 2900
Wire Wire Line
	8250 2900 8500 2900
Wire Wire Line
	8250 2450 8250 2300
Wire Wire Line
	8250 2300 7700 2300
Connection ~ 7700 2300
Wire Wire Line
	7700 2300 7700 2450
$Comp
L Connector:USB_B_Micro J4
U 1 1 5DF7A79F
P 1900 5350
F 0 "J4" H 1957 5817 50  0000 C CNN
F 1 "USB_B_Micro" H 1957 5726 50  0000 C CNN
F 2 "Connector_USB:USB_Micro-B_Molex-105017-0001" H 2050 5300 50  0001 C CNN
F 3 "~" H 2050 5300 50  0001 C CNN
	1    1900 5350
	1    0    0    -1  
$EndComp
$Comp
L Device:LED D1
U 1 1 5DFACF26
P 5450 1000
F 0 "D1" H 5443 1216 50  0000 C CNN
F 1 "LED" H 5443 1125 50  0000 C CNN
F 2 "LED_THT:LED_D5.0mm" H 5450 1000 50  0001 C CNN
F 3 "~" H 5450 1000 50  0001 C CNN
	1    5450 1000
	-1   0    0    -1  
$EndComp
$Comp
L Device:LED D2
U 1 1 5DFB71C7
P 5450 1400
F 0 "D2" H 5443 1616 50  0000 C CNN
F 1 "LED" H 5443 1525 50  0000 C CNN
F 2 "LED_THT:LED_D5.0mm" H 5450 1400 50  0001 C CNN
F 3 "~" H 5450 1400 50  0001 C CNN
	1    5450 1400
	-1   0    0    -1  
$EndComp
Wire Wire Line
	4650 2650 5300 2650
Wire Wire Line
	5300 2650 5300 1400
Wire Wire Line
	5300 1000 5300 1400
Connection ~ 5300 1400
$Comp
L Device:R R7
U 1 1 5DFC5D74
P 5950 1000
F 0 "R7" V 5743 1000 50  0000 C CNN
F 1 "R" V 5834 1000 50  0000 C CNN
F 2 "Resistor_THT:R_Axial_DIN0204_L3.6mm_D1.6mm_P7.62mm_Horizontal" V 5880 1000 50  0001 C CNN
F 3 "~" H 5950 1000 50  0001 C CNN
	1    5950 1000
	0    1    1    0   
$EndComp
$Comp
L Device:R R8
U 1 1 5DFCAB8F
P 5950 1400
F 0 "R8" V 5743 1400 50  0000 C CNN
F 1 "R" V 5834 1400 50  0000 C CNN
F 2 "Resistor_THT:R_Axial_DIN0204_L3.6mm_D1.6mm_P7.62mm_Horizontal" V 5880 1400 50  0001 C CNN
F 3 "~" H 5950 1400 50  0001 C CNN
	1    5950 1400
	0    1    1    0   
$EndComp
Wire Wire Line
	5600 1000 5800 1000
Wire Wire Line
	5800 1400 5600 1400
$Comp
L power:GND #PWR0105
U 1 1 5DFD3D35
P 6400 1600
F 0 "#PWR0105" H 6400 1350 50  0001 C CNN
F 1 "GND" H 6405 1427 50  0000 C CNN
F 2 "" H 6400 1600 50  0001 C CNN
F 3 "" H 6400 1600 50  0001 C CNN
	1    6400 1600
	1    0    0    -1  
$EndComp
Wire Wire Line
	6100 1400 6400 1400
Wire Wire Line
	6400 1400 6400 1600
Wire Wire Line
	6400 1400 6400 1000
Wire Wire Line
	6400 1000 6100 1000
Connection ~ 6400 1400
$EndSCHEMATC
